{
  "products": [
    {
      "id": 1,
      "name": "Product001",
      "cost": 10,
      "quantity": 2000
    },
    {
      "id": 2,
      "name": "Product002",
      "cost": 20,
      "quantity": 2000
    },
    {
      "id": 3,
      "name": "Product003",
      "cost": 30,
      "quantity": 3000
    },
    {
      "id": 4,
      "name": "Product004",
      "cost": 40,
      "quantity": 4000
    },
    {
      "firstParam": "yourValue",
      "secondParam": "yourOtherValue",
      "id": 5
    },
    {
      "firstParam": "yourValue",
      "secondParam": "yourOtherValue",
      "id": 6
    },
    {
      "firstParam": "yourValue",
      "secondParam": "yourOtherValue",
      "id": 7
    }
  ]
}